FPGA/wave.vcd
$date
	Thu Nov 06 00:33:07 2025
$end
$version
	Icarus Verilog
$end
$timescale
	1ps
$end
$scope module uart_echo_tb $end
$var wire 1 ! i_uart_tx $end
$var parameter 32 " BAUD_RATE $end
$var parameter 32 # CLK_FREQ $end
$var reg 1 $ i_clk $end
$var reg 1 % i_reset_n $end
$var reg 1 & i_uart_rx $end
$var reg 8 ' send_byte [7:0] $end
$scope module dut $end
$var wire 1 ( botao_a $end
$var wire 1 ) botao_b $end
$var wire 1 $ clk_50mhz $end
$var wire 1 % reset_n $end
$var wire 1 & uart_rx $end
$var wire 1 ! uart_tx $end
$var wire 1 * tx_done $end
$var wire 1 + tx_active $end
$var wire 1 , rx_filtered_dv $end
$var wire 8 - rx_filtered_byte [7:0] $end
$var wire 1 . rx_dv $end
$var wire 8 / rx_byte [7:0] $end
$var wire 8 0 clipping_byte [7:0] $end
$var parameter 8 1 HEADER_BYTE $end
$var reg 8 2 bitcrusher_out [7:0] $end
$var reg 8 3 filter_select [7:0] $end
$var reg 1 4 header_received $end
$var reg 8 5 reset_counter [7:0] $end
$var reg 1 6 reset_n_internal $end
$var reg 2 7 state [1:0] $end
$var reg 8 8 tx_byte [7:0] $end
$var reg 1 9 tx_dv $end
$scope module eff_1_inst $end
$var wire 8 : clipping_byte [7:0] $end
$var wire 1 $ i_clk $end
$var wire 1 % i_rst_n $end
$var wire 8 ; receive_byte [7:0] $end
$var parameter 32 < CLK_FREQ $end
$var reg 8 = CLIP_LEVEL [7:0] $end
$var reg 8 > clipping_get [7:0] $end
$upscope $end
$scope module uart_inst $end
$var wire 1 $ i_clk $end
$var wire 1 6 i_rst_n $end
$var wire 8 ? i_tx_byte [7:0] $end
$var wire 1 9 i_tx_dv $end
$var wire 1 & i_uart_rx $end
$var wire 1 ! o_uart_tx $end
$var wire 1 * o_tx_done $end
$var wire 1 + o_tx_active $end
$var wire 1 , o_rx_filtered_dv $end
$var wire 8 @ o_rx_filtered_byte [7:0] $end
$var wire 1 . o_rx_dv $end
$var wire 8 A o_rx_byte [7:0] $end
$var parameter 32 B BAUD_RATE $end
$var parameter 32 C CLKS_PER_BIT $end
$var parameter 32 D CLK_FREQ_HZ $end
$scope module lpf_inst $end
$var wire 1 $ i_clk $end
$var wire 1 6 i_rst_n $end
$var wire 1 , o_valid $end
$var wire 8 E o_filtered [7:0] $end
$var wire 1 . i_valid $end
$var wire 8 F i_data [7:0] $end
$var parameter 32 G ALPHA_SHIFT $end
$var reg 11 H acc [10:0] $end
$var reg 1 I valid_d $end
$upscope $end
$scope module uart_rx_inst $end
$var wire 1 $ i_clk $end
$var wire 1 6 i_rst_n $end
$var wire 1 & i_rx_serial $end
$var parameter 32 J BAUD_RATE $end
$var parameter 32 K CLKS_PER_BIT $end
$var parameter 32 L CLK_FREQ_HZ $end
$var reg 3 M bit_index [2:0] $end
$var reg 9 N clk_count [8:0] $end
$var reg 1 O frame_valid $end
$var reg 8 P o_rx_byte [7:0] $end
$var reg 1 . o_rx_dv $end
$var reg 8 Q rx_byte [7:0] $end
$var reg 1 R rx_data_r1 $end
$var reg 1 S rx_data_r2 $end
$var reg 1 T rx_data_r3 $end
$var reg 1 U rx_filtered $end
$var reg 1 V rx_line_was_high $end
$var reg 3 W state [2:0] $end
$upscope $end
$scope module uart_tx_inst $end
$var wire 1 $ i_clk $end
$var wire 1 6 i_rst_n $end
$var wire 8 X i_tx_byte [7:0] $end
$var wire 1 9 i_tx_dv $end
$var parameter 32 Y BAUD_RATE $end
$var parameter 32 Z CLKS_PER_BIT $end
$var parameter 32 [ CLK_FREQ $end
$var reg 3 \ bit_index [2:0] $end
$var reg 9 ] clk_count [8:0] $end
$var reg 1 + o_tx_active $end
$var reg 1 * o_tx_done $end
$var reg 1 ! o_tx_serial $end
$var reg 3 ^ state [2:0] $end
$var reg 8 _ tx_data [7:0] $end
$var reg 1 ` tx_dv_latched $end
$upscope $end
$upscope $end
$upscope $end
$scope begin $ivl_for_loop0 $end
$var integer 32 a i [31:0] $end
$upscope $end
$scope begin $ivl_for_loop1 $end
$var integer 32 b i [31:0] $end
$upscope $end
$upscope $end
$enddefinitions $end
$comment Show the parameter values. $end
$dumpall
b10111110101111000010000000 [
b110110010 Z
b11100001000000000 Y
b10111110101111000010000000 L
b110110010 K
b11100001000000000 J
b11 G
b10111110101111000010000000 D
b110110010 C
b11100001000000000 B
b10111110101111000010000000 <
b10101010 1
b1000 #
b1 "
$end
#0
$dumpvars
b0 b
b0 a
x`
bx _
bx ^
bx ]
bx \
bx X
bx W
xV
xU
xT
xS
xR
bx Q
bx P
xO
bx N
bx M
xI
bx H
bx F
bx E
bx A
bx @
bx ?
bx >
b11001000 =
bx ;
bx :
x9
bx 8
bx 7
06
b0 5
x4
bx 3
bx 2
bx 0
bx /
x.
bx -
x,
x+
x*
z)
z(
bx '
1&
0%
0$
x!
$end
#5000
1U
b0 3
b0 -
b0 @
b0 E
0`
0*
0+
1!
b0 _
b0 \
b0 ]
b0 ^
1T
1S
1R
1O
1V
b0 Q
b0 M
b0 N
b0 /
b0 ;
b0 A
b0 F
b0 P
0.
b0 W
0,
0I
b0 H
04
b0 8
b0 ?
b0 X
09
b0 7
b1 5
1$
#10000
0$
#15000
b10 5
b111000 0
b111000 :
b111000 >
1$
#20000
0$
#25000
b11 5
1$
#30000
0$
#35000
b100 5
1$
#40000
0$
#45000
b101 5
1$
#50000
0$
#55000
b110 5
1$
#60000
0$
#65000
b111 5
1$
#70000
0$
#75000
b1000 5
1$
#80000
0$
#85000
b1001 5
1$
#90000
0$
#95000
b1010 5
1$
#100000
0$
1%
#105000
b1011 5
1$
#110000
0$
#115000
b1100 5
1$
#120000
0$
#125000
b1101 5
1$
#130000
0$
#135000
b1110 5
1$
#140000
0$
#145000
b1111 5
1$
#150000
0$
#155000
b10000 5
1$
#160000
0$
#165000
b10001 5
1$
#170000
0$
#175000
b10010 5
0&
1$
#180000
0$
#185000
b10011 5
1$
#190000
0$
#195000
b10100 5
1$
#200000
0$
#205000
b10101 5
1$
#210000
0$
#215000
b10110 5
1$
#220000
0$
#225000
b10111 5
1$
#230000
0$
#235000
b11000 5
1$
#240000
0$
#245000
b11001 5
1$
#250000
0$
#255000
b11010 5
b10101010 '
1$
#260000
0$
#265000
b11011 5
1$
#270000
0$
#275000
b11100 5
1$
#280000
0$
#285000
b11101 5
1$
#290000
0$
#295000
b11110 5
1$
#300000
0$
#305000
b11111 5
1$
#310000
0$
#315000
b100000 5
1$
#320000
0$
#325000
b100001 5
1$
#330000
0$
#335000
b100010 5
1&
b1 a
1$
#340000
0$
#345000
b100011 5
1$
#350000
0$
#355000
b100100 5
1$
#360000
0$
#365000
b100101 5
1$
#370000
0$
#375000
b100110 5
1$
#380000
0$
#385000
b100111 5
1$
#390000
0$
#395000
b101000 5
1$
#400000
0$
#405000
b101001 5
1$
#410000
0$
#415000
b101010 5
0&
b10 a
1$
#420000
0$
#425000
b101011 5
1$
#430000
0$
#435000
b101100 5
1$
#440000
0$
#445000
b101101 5
1$
#450000
0$
#455000
b101110 5
1$
#460000
0$
#465000
b101111 5
1$
#470000
0$
#475000
b110000 5
1$
#480000
0$
#485000
b110001 5
1$
#490000
0$
#495000
b110010 5
1&
b11 a
1$
#500000
0$
#505000
b110011 5
1$
#510000
0$
#515000
b110100 5
1$
#520000
0$
#525000
b110101 5
1$
#530000
0$
#535000
b110110 5
1$
#540000
0$
#545000
b110111 5
1$
#550000
0$
#555000
b111000 5
1$
#560000
0$
#565000
b111001 5
1$
#570000
0$
#575000
b111010 5
0&
b100 a
1$
#580000
0$
#585000
b111011 5
1$
#590000
0$
#595000
b111100 5
1$
#600000
0$
#605000
b111101 5
1$
#610000
0$
#615000
b111110 5
1$
#620000
0$
#625000
b111111 5
1$
#630000
0$
#635000
b1000000 5
1$
#640000
0$
#645000
b1000001 5
1$
#650000
0$
#655000
b1000010 5
1&
b101 a
1$
#660000
0$
#665000
b1000011 5
1$
#670000
0$
#675000
b1000100 5
1$
#680000
0$
#685000
b1000101 5
1$
#690000
0$
#695000
b1000110 5
1$
#700000
0$
#705000
b1000111 5
1$
#710000
0$
#715000
b1001000 5
1$
#720000
0$
#725000
b1001001 5
1$
#730000
0$
#735000
b1001010 5
0&
b110 a
1$
#740000
0$
#745000
b1001011 5
1$
#750000
0$
#755000
b1001100 5
1$
#760000
0$
#765000
b1001101 5
1$
#770000
0$
#775000
b1001110 5
1$
#780000
0$
#785000
b1001111 5
1$
#790000
0$
#795000
b1010000 5
1$
#800000
0$
#805000
b1010001 5
1$
#810000
0$
#815000
b1010010 5
1&
b111 a
1$
#820000
0$
#825000
b1010011 5
1$
#830000
0$
#835000
b1010100 5
1$
#840000
0$
#845000
b1010101 5
1$
#850000
0$
#855000
b1010110 5
1$
#860000
0$
#865000
b1010111 5
1$
#870000
0$
#875000
b1011000 5
1$
#880000
0$
#885000
b1011001 5
1$
#890000
0$
#895000
b1011010 5
b10011101 '
b1000 a
1$
#900000
0$
#905000
b1011011 5
1$
#910000
0$
#915000
b1011100 5
1$
#920000
0$
#925000
b1011101 5
1$
#930000
0$
#935000
b1011110 5
1$
#940000
0$
#945000
b1011111 5
1$
#950000
0$
#955000
b1100000 5
1$
#960000
0$
#965000
b1100001 5
1$
#970000
0$
#975000
b1100010 5
0&
b1 b
1$
#980000
0$
#985000
b1100011 5
1$
#990000
0$
#995000
b1100100 5
1$
#1000000
0$
#1005000
b1100101 5
1$
#1010000
0$
#1015000
b1100110 5
1$
#1020000
0$
#1025000
b1100111 5
1$
#1030000
0$
#1035000
b1101000 5
1$
#1040000
0$
#1045000
b1101001 5
1$
#1050000
0$
#1055000
b1101010 5
1&
b10 b
1$
#1060000
0$
#1065000
b1101011 5
1$
#1070000
0$
#1075000
b1101100 5
1$
#1080000
0$
#1085000
b1101101 5
1$
#1090000
0$
#1095000
b1101110 5
1$
#1100000
0$
#1105000
b1101111 5
1$
#1110000
0$
#1115000
b1110000 5
1$
#1120000
0$
#1125000
b1110001 5
1$
#1130000
0$
#1135000
b1110010 5
b11 b
1$
#1140000
0$
#1145000
b1110011 5
1$
#1150000
0$
#1155000
b1110100 5
1$
#1160000
0$
#1165000
b1110101 5
1$
#1170000
0$
#1175000
b1110110 5
1$
#1180000
0$
#1185000
b1110111 5
1$
#1190000
0$
#1195000
b1111000 5
1$
#1200000
0$
#1205000
b1111001 5
1$
#1210000
0$
#1215000
b1111010 5
b100 b
1$
#1220000
0$
#1225000
b1111011 5
1$
#1230000
0$
#1235000
b1111100 5
1$
#1240000
0$
#1245000
b1111101 5
1$
#1250000
0$
#1255000
b1111110 5
1$
#1260000
0$
#1265000
b1111111 5
1$
#1270000
0$
#1275000
b10000000 5
1$
#1280000
0$
#1285000
b10000001 5
1$
#1290000
0$
#1295000
b10000010 5
0&
b101 b
1$
#1300000
0$
#1305000
b10000011 5
1$
#1310000
0$
#1315000
b10000100 5
1$
#1320000
0$
#1325000
b10000101 5
1$
#1330000
0$
#1335000
b10000110 5
1$
#1340000
0$
#1345000
b10000111 5
1$
#1350000
0$
#1355000
b10001000 5
1$
#1360000
0$
#1365000
b10001001 5
1$
#1370000
0$
#1375000
b10001010 5
b110 b
1$
#1380000
0$
#1385000
b10001011 5
1$
#1390000
0$
#1395000
b10001100 5
1$
#1400000
0$
#1405000
b10001101 5
1$
#1410000
0$
#1415000
b10001110 5
1$
#1420000
0$
#1425000
b10001111 5
1$
#1430000
0$
#1435000
b10010000 5
1$
#1440000
0$
#1445000
b10010001 5
1$
#1450000
0$
#1455000
b10010010 5
1&
b111 b
1$
#1460000
0$
#1465000
b10010011 5
1$
#1470000
0$
#1475000
b10010100 5
1$
#1480000
0$
#1485000
b10010101 5
1$
#1490000
0$
#1495000
b10010110 5
1$
#1500000
0$
#1505000
b10010111 5
1$
#1510000
0$
#1515000
b10011000 5
1$
#1520000
0$
#1525000
b10011001 5
1$
#1530000
0$
#1535000
b10011010 5
b1000 b
1$
#1540000
0$
#1545000
b10011011 5
1$
#1550000
0$
#1555000
b10011100 5
1$
#1560000
0$
#1565000
b10011101 5
1$
#1570000
0$
#1575000
b10011110 5
1$
#1580000
0$
#1585000
b10011111 5
1$
#1590000
0$
#1595000
b10100000 5
1$
#1600000
0$
#1605000
b10100001 5
1$
#1610000
0$
#1615000
b10100010 5
1$
#1620000
0$
#1625000
b10100011 5
1$
#1630000
0$
#1635000
b10100100 5
1$
#1640000
0$
#1645000
b10100101 5
1$
#1650000
0$
#1655000
b10100110 5
1$
#1660000
0$
#1665000
b10100111 5
1$
#1670000
0$
#1675000
b10101000 5
1$
#1680000
0$
#1685000
b10101001 5
1$
#1690000
0$
#1695000
b10101010 5
1$
#1700000
0$
#1705000
b10101011 5
1$
#1710000
0$
#1715000
b10101100 5
1$
#1720000
0$
#1725000
b10101101 5
1$
#1730000
0$
#1735000
b10101110 5
1$
#1740000
0$
#1745000
b10101111 5
1$
#1750000
0$
#1755000
b10110000 5
1$
#1760000
0$
#1765000
b10110001 5
1$
#1770000
0$
#1775000
b10110010 5
1$
#1780000
0$
#1785000
b10110011 5
1$
#1790000
0$
#1795000
b10110100 5
1$
#1800000
0$
#1805000
b10110101 5
1$
#1810000
0$
#1815000
b10110110 5
1$
#1820000
0$
#1825000
b10110111 5
1$
#1830000
0$
#1835000
b10111000 5
1$
#1840000
0$
#1845000
b10111001 5
1$
#1850000
0$
#1855000
b10111010 5
1$
#1860000
0$
#1865000
b10111011 5
1$
#1870000
0$
#1875000
b10111100 5
1$
#1880000
0$
#1885000
b10111101 5
1$
#1890000
0$
#1895000
b10111110 5
1$
#1900000
0$
#1905000
b10111111 5
1$
#1910000
0$
#1915000
b11000000 5
1$
#1920000
0$
#1925000
b11000001 5
1$
#1930000
0$
#1935000
b11000010 5
1$
#1940000
0$
#1945000
b11000011 5
1$
#1950000
0$
#1955000
b11000100 5
1$
#1960000
0$
#1965000
b11000101 5
1$
#1970000
0$
#1975000
b11000110 5
1$
#1980000
0$
#1985000
b11000111 5
1$
#1990000
0$
#1995000
b11001000 5
1$
#2000000
0$
#2005000
b11001001 5
1$
#2010000
0$
#2015000
b11001010 5
1$
#2020000
0$
#2025000
b11001011 5
1$
#2030000
0$
#2035000
b11001100 5
1$
#2040000
0$
#2045000
b11001101 5
1$
#2050000
0$
#2055000
b11001110 5
1$
#2060000
0$
#2065000
b11001111 5
1$
#2070000
0$
#2075000
b11010000 5
1$
#2080000
0$
#2085000
b11010001 5
1$
#2090000
0$
#2095000
b11010010 5
1$
#2100000
0$
#2105000
b11010011 5
1$
#2110000
0$
#2115000
b11010100 5
1$
#2120000
0$
#2125000
b11010101 5
1$
#2130000
0$
#2135000
b11010110 5
1$
#2140000
0$
#2145000
b11010111 5
1$
#2150000
0$
#2155000
b11011000 5
1$
#2160000
0$
#2165000
b11011001 5
1$
#2170000
0$
#2175000
b11011010 5
1$
#2180000
0$
#2185000
b11011011 5
1$
#2190000
0$
#2195000
b11011100 5
1$
#2200000
0$
#2205000
b11011101 5
1$
#2210000
0$
#2215000
b11011110 5
1$
#2220000
0$
#2225000
b11011111 5
1$
#2230000
0$
#2235000
b11100000 5
1$
#2240000
0$
#2245000
b11100001 5
1$
#2250000
0$
#2255000
b11100010 5
1$
#2260000
0$
#2265000
b11100011 5
1$
#2270000
0$
#2275000
b11100100 5
1$
#2280000
0$
#2285000
b11100101 5
1$
#2290000
0$
#2295000
b11100110 5
1$
#2300000
0$
#2305000
b11100111 5
1$
#2310000
0$
#2315000
b11101000 5
1$
#2320000
0$
#2325000
b11101001 5
1$
#2330000
0$
#2335000
b11101010 5
1$
#2340000
0$
#2345000
b11101011 5
1$
#2350000
0$
#2355000
b11101100 5
1$
#2360000
0$
#2365000
b11101101 5
1$
#2370000
0$
#2375000
b11101110 5
1$
#2380000
0$
#2385000
b11101111 5
1$
#2390000
0$
#2395000
b11110000 5
1$
#2400000
0$
#2405000
b11110001 5
1$
#2410000
0$
#2415000
b11110010 5
1$
#2420000
0$
#2425000
b11110011 5
1$
#2430000
0$
#2435000
b11110100 5
1$
#2440000
0$
#2445000
b11110101 5
1$
#2450000
0$
#2455000
b11110110 5
1$
#2460000
0$
#2465000
b11110111 5
1$
#2470000
0$
#2475000
b11111000 5
1$
#2480000
0$
#2485000
b11111001 5
1$
#2490000
0$
#2495000
b11111010 5
1$
#2500000
0$
#2505000
b11111011 5
1$
#2510000
0$
#2515000
b11111100 5
1$
#2520000
0$
#2525000
b11111101 5
1$
#2530000
0$
#2535000
b11111110 5
1$
